EESchema Schematic File Version 4
EELAYER 30 0
EELAYER END
$Descr A4 11693 8268
encoding utf-8
Sheet 1 1
Title ""
Date ""
Rev ""
Comp ""
Comment1 ""
Comment2 ""
Comment3 ""
Comment4 ""
$EndDescr
$Comp
L MCU_Microchip_SAMD:ATSAMD10C14A-SS U1
U 1 1 605B55B1
P 6200 3600
F 0 "U1" H 5850 4250 50  0000 C CNN
F 1 "ATSAMD10C14A-SS" H 6600 2950 50  0000 C CNN
F 2 "Package_SO:SOIC-14_3.9x8.7mm_P1.27mm" H 6200 2550 50  0001 C CNN
F 3 "http://ww1.microchip.com/downloads/en/DeviceDoc/Atmel-42242-SAM-D10_Datasheet.pdf" H 6200 2900 50  0001 C CNN
	1    6200 3600
	1    0    0    -1  
$EndComp
$Comp
L Device:C_Small C1
U 1 1 605B6E94
P 6950 2550
F 0 "C1" H 7042 2596 50  0000 L CNN
F 1 "100nF" H 7042 2505 50  0000 L CNN
F 2 "" H 6950 2550 50  0001 C CNN
F 3 "~" H 6950 2550 50  0001 C CNN
	1    6950 2550
	1    0    0    -1  
$EndComp
$Comp
L power:+3V3 #PWR03
U 1 1 605B720F
P 6950 2450
F 0 "#PWR03" H 6950 2300 50  0001 C CNN
F 1 "+3V3" H 6965 2623 50  0000 C CNN
F 2 "" H 6950 2450 50  0001 C CNN
F 3 "" H 6950 2450 50  0001 C CNN
	1    6950 2450
	1    0    0    -1  
$EndComp
$Comp
L power:GND #PWR04
U 1 1 605B81B9
P 6950 2650
F 0 "#PWR04" H 6950 2400 50  0001 C CNN
F 1 "GND" H 6955 2477 50  0000 C CNN
F 2 "" H 6950 2650 50  0001 C CNN
F 3 "" H 6950 2650 50  0001 C CNN
	1    6950 2650
	1    0    0    -1  
$EndComp
$Comp
L power:GND #PWR02
U 1 1 605B84AA
P 6200 4300
F 0 "#PWR02" H 6200 4050 50  0001 C CNN
F 1 "GND" H 6205 4127 50  0000 C CNN
F 2 "" H 6200 4300 50  0001 C CNN
F 3 "" H 6200 4300 50  0001 C CNN
	1    6200 4300
	1    0    0    -1  
$EndComp
$Comp
L power:+3V3 #PWR01
U 1 1 605B8A39
P 6200 2900
F 0 "#PWR01" H 6200 2750 50  0001 C CNN
F 1 "+3V3" H 6215 3073 50  0000 C CNN
F 2 "" H 6200 2900 50  0001 C CNN
F 3 "" H 6200 2900 50  0001 C CNN
	1    6200 2900
	1    0    0    -1  
$EndComp
Text GLabel 5700 3300 0    50   Input ~ 0
~RST~
Text GLabel 5700 3500 0    50   Input ~ 0
SWCLK
Text GLabel 5700 3600 0    50   Input ~ 0
SWDIO
$Comp
L Device:R R1
U 1 1 605BD24E
P 7450 2550
F 0 "R1" H 7520 2596 50  0000 L CNN
F 1 "10K" H 7520 2505 50  0000 L CNN
F 2 "" V 7380 2550 50  0001 C CNN
F 3 "~" H 7450 2550 50  0001 C CNN
	1    7450 2550
	1    0    0    -1  
$EndComp
$Comp
L power:+3V3 #PWR05
U 1 1 605BD6AF
P 7450 2400
F 0 "#PWR05" H 7450 2250 50  0001 C CNN
F 1 "+3V3" H 7465 2573 50  0000 C CNN
F 2 "" H 7450 2400 50  0001 C CNN
F 3 "" H 7450 2400 50  0001 C CNN
	1    7450 2400
	1    0    0    -1  
$EndComp
Text GLabel 7450 2700 3    50   Input ~ 0
~RST~
$Comp
L Switch:SW_Push SW1
U 1 1 605DAD6A
P 5000 2650
F 0 "SW1" H 5000 2935 50  0000 C CNN
F 1 "SW_Push" H 5000 2844 50  0000 C CNN
F 2 "" H 5000 2850 50  0001 C CNN
F 3 "~" H 5000 2850 50  0001 C CNN
	1    5000 2650
	1    0    0    -1  
$EndComp
$Comp
L power:GND #PWR0101
U 1 1 605DD9B8
P 5300 2700
F 0 "#PWR0101" H 5300 2450 50  0001 C CNN
F 1 "GND" H 5305 2527 50  0000 C CNN
F 2 "" H 5300 2700 50  0001 C CNN
F 3 "" H 5300 2700 50  0001 C CNN
	1    5300 2700
	1    0    0    -1  
$EndComp
Text GLabel 4800 2650 0    50   Input ~ 0
~RST~
Wire Wire Line
	5200 2650 5300 2650
Wire Wire Line
	5300 2650 5300 2700
Text GLabel 6700 3300 2    50   Input ~ 0
LED
$Comp
L Device:LED_ALT D1
U 1 1 605DEA18
P 8150 3250
F 0 "D1" H 8143 2995 50  0000 C CNN
F 1 "LED_ALT" H 8143 3086 50  0000 C CNN
F 2 "" H 8150 3250 50  0001 C CNN
F 3 "~" H 8150 3250 50  0001 C CNN
	1    8150 3250
	-1   0    0    1   
$EndComp
Text GLabel 8000 3250 0    50   Input ~ 0
LED
$Comp
L Device:R R2
U 1 1 605E14EB
P 8600 3250
F 0 "R2" V 8700 3200 50  0000 L CNN
F 1 "1K" V 8500 3200 50  0000 L CNN
F 2 "" V 8530 3250 50  0001 C CNN
F 3 "~" H 8600 3250 50  0001 C CNN
	1    8600 3250
	0    -1   -1   0   
$EndComp
Wire Wire Line
	8300 3250 8450 3250
Wire Wire Line
	8750 3250 8850 3250
Wire Wire Line
	8850 3250 8850 3300
$Comp
L Connector_Generic:Conn_02x03_Odd_Even J3
U 1 1 605E5860
P 8400 2550
F 0 "J3" H 8450 2867 50  0000 C CNN
F 1 "SWD_PGM" H 8450 2776 50  0000 C CNN
F 2 "" H 8400 2550 50  0001 C CNN
F 3 "~" H 8400 2550 50  0001 C CNN
	1    8400 2550
	1    0    0    -1  
$EndComp
Text GLabel 8200 2450 0    50   Input ~ 0
SWDIO
Text GLabel 8200 2550 0    50   Input ~ 0
SWCLK
Text GLabel 8100 2700 0    50   Input ~ 0
~RST~
Wire Wire Line
	8100 2700 8150 2700
Wire Wire Line
	8150 2700 8150 2650
Wire Wire Line
	8150 2650 8200 2650
$Comp
L power:+3V3 #PWR06
U 1 1 605E9047
P 8750 2400
F 0 "#PWR06" H 8750 2250 50  0001 C CNN
F 1 "+3V3" H 8765 2573 50  0000 C CNN
F 2 "" H 8750 2400 50  0001 C CNN
F 3 "" H 8750 2400 50  0001 C CNN
	1    8750 2400
	1    0    0    -1  
$EndComp
$Comp
L power:GND #PWR07
U 1 1 605E9B98
P 8750 2700
F 0 "#PWR07" H 8750 2450 50  0001 C CNN
F 1 "GND" H 8755 2527 50  0000 C CNN
F 2 "" H 8750 2700 50  0001 C CNN
F 3 "" H 8750 2700 50  0001 C CNN
	1    8750 2700
	1    0    0    -1  
$EndComp
Wire Wire Line
	8700 2450 8750 2450
Wire Wire Line
	8750 2450 8750 2400
Wire Wire Line
	8700 2650 8750 2650
Wire Wire Line
	8750 2650 8750 2700
$Comp
L Connector_Generic:Conn_01x04 J1
U 1 1 605F07AC
P 8050 3950
F 0 "J1" H 8000 4150 50  0000 L CNN
F 1 "GPIO_A" H 7900 3650 50  0000 L CNN
F 2 "" H 8050 3950 50  0001 C CNN
F 3 "~" H 8050 3950 50  0001 C CNN
	1    8050 3950
	1    0    0    -1  
$EndComp
$Comp
L Connector_Generic:Conn_01x04 J2
U 1 1 605F4841
P 8350 3950
F 0 "J2" H 8300 4150 50  0000 L CNN
F 1 "GPIO_B" H 8200 3650 50  0000 L CNN
F 2 "" H 8350 3950 50  0001 C CNN
F 3 "~" H 8350 3950 50  0001 C CNN
	1    8350 3950
	-1   0    0    -1  
$EndComp
Text GLabel 5700 3800 0    50   Input ~ 0
GPIO_1
Text GLabel 5700 3900 0    50   Input ~ 0
GPIO_2
Text GLabel 6700 3400 2    50   Input ~ 0
GPIO_3
Text GLabel 6700 3500 2    50   Input ~ 0
GPIO_4
Text GLabel 6700 3600 2    50   Input ~ 0
GPIO_5
Text GLabel 6700 3700 2    50   Input ~ 0
GPIO_6
Text GLabel 6700 3800 2    50   Input ~ 0
GPIO_7
Text GLabel 6700 3900 2    50   Input ~ 0
GPIO_8
Text GLabel 7850 3850 0    50   Input ~ 0
GPIO_1
Text GLabel 7850 3950 0    50   Input ~ 0
GPIO_2
Text GLabel 7850 4050 0    50   Input ~ 0
GPIO_3
Text GLabel 7850 4150 0    50   Input ~ 0
GPIO_4
Text GLabel 8550 3850 2    50   Input ~ 0
GPIO_5
Text GLabel 8550 3950 2    50   Input ~ 0
GPIO_6
Text GLabel 8550 4050 2    50   Input ~ 0
GPIO_7
Text GLabel 8550 4150 2    50   Input ~ 0
GPIO_8
NoConn ~ 8700 2550
$Comp
L Connector_Generic:Conn_01x02 J4
U 1 1 6061EAB7
P 1900 3500
F 0 "J4" H 1980 3492 50  0000 L CNN
F 1 "Battery" H 1980 3401 50  0000 L CNN
F 2 "" H 1900 3500 50  0001 C CNN
F 3 "~" H 1900 3500 50  0001 C CNN
	1    1900 3500
	1    0    0    -1  
$EndComp
$Comp
L Regulator_Linear:APE8865NR-33-HF-3 U2
U 1 1 60621C17
P 3050 3650
F 0 "U2" H 3050 3892 50  0000 C CNN
F 1 "LDR" H 3050 3801 50  0000 C CNN
F 2 "Package_TO_SOT_SMD:SOT-23" H 3050 3875 50  0001 C CIN
F 3 "http://www.tme.eu/fr/Document/ced3461ed31ea70a3c416fb648e0cde7/APE8865-3.pdf" H 3050 3600 50  0001 C CNN
	1    3050 3650
	1    0    0    -1  
$EndComp
$Comp
L power:GND #PWR011
U 1 1 6062240C
P 2900 4100
F 0 "#PWR011" H 2900 3850 50  0001 C CNN
F 1 "GND" H 2905 3927 50  0000 C CNN
F 2 "" H 2900 4100 50  0001 C CNN
F 3 "" H 2900 4100 50  0001 C CNN
	1    2900 4100
	1    0    0    -1  
$EndComp
$Comp
L Device:C_Small C3
U 1 1 6062300D
P 3450 3850
F 0 "C3" H 3542 3896 50  0000 L CNN
F 1 "1uF" H 3542 3805 50  0000 L CNN
F 2 "" H 3450 3850 50  0001 C CNN
F 3 "~" H 3450 3850 50  0001 C CNN
	1    3450 3850
	1    0    0    -1  
$EndComp
$Comp
L Device:C_Small C2
U 1 1 60623B37
P 2650 3850
F 0 "C2" H 2450 3900 50  0000 L CNN
F 1 "1uF" H 2400 3800 50  0000 L CNN
F 2 "" H 2650 3850 50  0001 C CNN
F 3 "~" H 2650 3850 50  0001 C CNN
	1    2650 3850
	1    0    0    -1  
$EndComp
$Comp
L power:+3V3 #PWR012
U 1 1 606276E0
P 3450 3650
F 0 "#PWR012" H 3450 3500 50  0001 C CNN
F 1 "+3V3" H 3465 3823 50  0000 C CNN
F 2 "" H 3450 3650 50  0001 C CNN
F 3 "" H 3450 3650 50  0001 C CNN
	1    3450 3650
	1    0    0    -1  
$EndComp
$Comp
L power:+BATT #PWR010
U 1 1 606282D0
P 2400 3500
F 0 "#PWR010" H 2400 3350 50  0001 C CNN
F 1 "+BATT" H 2415 3673 50  0000 C CNN
F 2 "" H 2400 3500 50  0001 C CNN
F 3 "" H 2400 3500 50  0001 C CNN
	1    2400 3500
	1    0    0    -1  
$EndComp
Wire Wire Line
	2750 3650 2650 3650
Wire Wire Line
	2650 3650 2650 3750
Connection ~ 2650 3650
Wire Wire Line
	3350 3650 3450 3650
Wire Wire Line
	3450 3650 3450 3750
Connection ~ 3450 3650
$Comp
L power:+BATT #PWR08
U 1 1 606295A5
P 1700 3500
F 0 "#PWR08" H 1700 3350 50  0001 C CNN
F 1 "+BATT" H 1715 3673 50  0000 C CNN
F 2 "" H 1700 3500 50  0001 C CNN
F 3 "" H 1700 3500 50  0001 C CNN
	1    1700 3500
	1    0    0    -1  
$EndComp
$Comp
L power:GND #PWR09
U 1 1 60629B8E
P 1700 3600
F 0 "#PWR09" H 1700 3350 50  0001 C CNN
F 1 "GND" H 1705 3427 50  0000 C CNN
F 2 "" H 1700 3600 50  0001 C CNN
F 3 "" H 1700 3600 50  0001 C CNN
	1    1700 3600
	1    0    0    -1  
$EndComp
$Comp
L power:GND #PWR0103
U 1 1 6062D575
P 2650 3950
F 0 "#PWR0103" H 2650 3700 50  0001 C CNN
F 1 "GND" H 2655 3777 50  0000 C CNN
F 2 "" H 2650 3950 50  0001 C CNN
F 3 "" H 2650 3950 50  0001 C CNN
	1    2650 3950
	1    0    0    -1  
$EndComp
$Comp
L power:GND #PWR0104
U 1 1 6062D97E
P 3450 3950
F 0 "#PWR0104" H 3450 3700 50  0001 C CNN
F 1 "GND" H 3455 3777 50  0000 C CNN
F 2 "" H 3450 3950 50  0001 C CNN
F 3 "" H 3450 3950 50  0001 C CNN
	1    3450 3950
	1    0    0    -1  
$EndComp
$Comp
L power:PWR_FLAG #FLG0101
U 1 1 606329AC
P 2650 3650
F 0 "#FLG0101" H 2650 3725 50  0001 C CNN
F 1 "PWR_FLAG" H 2650 3823 50  0000 C CNN
F 2 "" H 2650 3650 50  0001 C CNN
F 3 "~" H 2650 3650 50  0001 C CNN
	1    2650 3650
	1    0    0    -1  
$EndComp
Wire Wire Line
	2400 3500 2400 3650
Wire Wire Line
	2400 3650 2650 3650
Wire Wire Line
	2900 4100 2900 3950
Wire Wire Line
	2900 3950 3050 3950
Wire Wire Line
	3050 3950 3200 3950
Wire Wire Line
	3200 3950 3200 4100
Connection ~ 3050 3950
$Comp
L power:GNDPWR #PWR0105
U 1 1 606403BB
P 3200 4100
F 0 "#PWR0105" H 3200 3900 50  0001 C CNN
F 1 "GNDPWR" H 3204 3946 50  0000 C CNN
F 2 "" H 3200 4050 50  0001 C CNN
F 3 "" H 3200 4050 50  0001 C CNN
	1    3200 4100
	1    0    0    -1  
$EndComp
$Comp
L power:GND #PWR0102
U 1 1 605E2D93
P 9100 3500
F 0 "#PWR0102" H 9100 3250 50  0001 C CNN
F 1 "GND" H 9105 3327 50  0000 C CNN
F 2 "" H 9100 3500 50  0001 C CNN
F 3 "" H 9100 3500 50  0001 C CNN
	1    9100 3500
	1    0    0    -1  
$EndComp
$EndSCHEMATC
